[
    {
        "mimeType": "text/plain",
        "filter": [
            { "field": "From", "match": "express@studentagency.cz", "mimeType": "message/rfc822", "scope": "Ancestors" },
            { "field": "From", "match": "info@regiojet.cz", "mimeType": "message/rfc822", "scope": "Ancestors" }
        ],
        "script": "regiojet.js",
        "function": "main"
    },
    {
        "mimeType": "internal/event",
        "filter": [ { "field": "uid", "match": "@regiojet.cz", "mimeType": "internal/event", "scope": "Current" } ],
        "script": "regiojet.js",
        "function": "parseEvent"
    }
]
