[
    {
        "@context": "http://schema.org",
        "@type": "TrainReservation",
        "reservationFor": {
            "@type": "TrainTrip",
            "arrivalPlatform": "6",
            "arrivalStation": {
                "@type": "TrainStation",
                "name": "Berlin Hbf (tief)"
            },
            "arrivalTime": "2027-09-12T21:15:00",
            "departureDay": "2027-09-12",
            "departurePlatform": "",
            "departureStation": {
                "@type": "TrainStation",
                "name": "Brno hl.n."
            },
            "departureTime": "2027-09-12T13:39:00",
            "trainNumber": "EC 170"
        },
        "reservationNumber": "XXX007",
        "reservationStatus": "http://schema.org/ReservationConfirmed",
        "reservedTicket": {
            "@type": "Ticket",
            "ticketedSeat": {
                "@type": "Seat",
                "seatNumber": "71 73",
                "seatSection": "256"
            }
        }
    }
]
