[
    {
        "content": {
            "creationTime": "Mon Aug 19 20:23:28 2019 GMT+0200",
            "modificationTime": "Invalid Date",
            "objectName": "",
            "pageCount": 1,
            "pages": [
                {
                    "images": [
                        {
                            "height": 139,
                            "width": 139
                        },
                        {
                            "height": 79,
                            "width": 79
                        }
                    ],
                    "links": [
                    ],
                    "text": "              Akademy Airways\n              Boarding Pass\nFrom: Vienna International, Terminal 2\nTo: Milano Malpensa, Terminal 1\nFlight: AK 1996\nGate: A36\nBoarding Time: 15:20\nDeparture Time: 15:45\nArrival Time: 17:20\nPassenger: Dragon, Dr. Konqi\n"
                }
            ],
            "producer": "cairo 1.16.0 (https://cairographics.org)",
            "text": "              Akademy Airways\n              Boarding Pass\nFrom: Vienna International, Terminal 2\nTo: Milano Malpensa, Terminal 1\nFlight: AK 1996\nGate: A36\nBoarding Time: 15:20\nDeparture Time: 15:45\nArrival Time: 17:20\nPassenger: Dragon, Dr. Konqi\n",
            "title": ""
        }
    },
    {
        "childNodes": [
            {
                "childNodes": [
                    {
                        "childNodes": [
                            "[...]"
                        ],
                        "content": "M1DRAGON/KONQUI       EXXX007 VIEMXPAK 1996 249J013C0042 167>5321WW8325BAK 0014123456002001414246700100141234789012A0141234567890 1AK AK 1234567890123    4PCYLX58Z^108ABCDEFGH",
                        "contextDateTime": "Mon Aug 19 20:23:28 2019 GMT+0200",
                        "isNull": false,
                        "location": 0,
                        "mimeType": "application/octet-stream",
                        "result": [
                        ]
                    }
                ],
                "content": "QVariant(QImage, QImage(QSize(164, 164),format=QImage::Format_Grayscale8,depth=8,devicePixelRatio=1,bytesPerLine=164,sizeInBytes=26896))",
                "contextDateTime": "Mon Aug 19 20:23:28 2019 GMT+0200",
                "isNull": false,
                "location": 0,
                "mimeType": "internal/qimage",
                "result": [
                ]
            },
            {
                "childNodes": [
                ],
                "content": "              Akademy Airways\n              Boarding Pass\nFrom: Vienna International, Terminal 2\nTo: Milano Malpensa, Terminal 1\nFlight: AK 1996\nGate: A36\nBoarding Time: 15:20\nDeparture Time: 15:45\nArrival Time: 17:20\nPassenger: Dragon, Dr. Konqi\n",
                "contextDateTime": "Mon Aug 19 20:23:28 2019 GMT+0200",
                "isNull": false,
                "mimeType": "text/plain",
                "result": [
                ]
            }
        ],
        "content": {
            "creationTime": "Mon Aug 19 20:23:28 2019 GMT+0200",
            "modificationTime": "Invalid Date",
            "objectName": "",
            "pageCount": 1,
            "pages": [
                {
                    "images": [
                        {
                            "height": 139,
                            "width": 139
                        },
                        {
                            "height": 79,
                            "width": 79
                        }
                    ],
                    "links": [
                    ],
                    "text": "              Akademy Airways\n              Boarding Pass\nFrom: Vienna International, Terminal 2\nTo: Milano Malpensa, Terminal 1\nFlight: AK 1996\nGate: A36\nBoarding Time: 15:20\nDeparture Time: 15:45\nArrival Time: 17:20\nPassenger: Dragon, Dr. Konqi\n"
                }
            ],
            "producer": "cairo 1.16.0 (https://cairographics.org)",
            "text": "              Akademy Airways\n              Boarding Pass\nFrom: Vienna International, Terminal 2\nTo: Milano Malpensa, Terminal 1\nFlight: AK 1996\nGate: A36\nBoarding Time: 15:20\nDeparture Time: 15:45\nArrival Time: 17:20\nPassenger: Dragon, Dr. Konqi\n",
            "title": ""
        },
        "contextDateTime": "Mon Aug 19 20:23:28 2019 GMT+0200",
        "isNull": false,
        "mimeType": "application/pdf",
        "result": [
        ]
    },
    {
        "triggerNodeEqualsNode": true
    }
]
